.Xil/Vivado-170215-sawi/hw_ila_data_1/zip_work/waveform.vcd
$date
        2022-Nov-20 17:13:26
$end
$version
        Vivado v2022.1 (64-bit)
$end
$timescale
        1ps
$end
$scope module dut $end
$var reg 6 " processing_system_wrapper_i/processing_system_i/system_ila_0/inst/probe0_1 [5:0] $end
$var reg 2 ( processing_system_wrapper_i/processing_system_i/system_ila_0/inst/net_slot_0_axi_ar_cnt [1:0] $end
$var reg 32 * processing_system_wrapper_i/processing_system_i/system_ila_0/inst/net_slot_0_axi_araddr [31:0] $end
$var reg 2 J processing_system_wrapper_i/processing_system_i/system_ila_0/inst/net_slot_0_axi_arburst [1:0] $end
$var reg 4 L processing_system_wrapper_i/processing_system_i/system_ila_0/inst/net_slot_0_axi_arcache [3:0] $end
$var reg 8 P processing_system_wrapper_i/processing_system_i/system_ila_0/inst/net_slot_0_axi_arlen [7:0] $end
$var reg 1 X processing_system_wrapper_i/processing_system_i/system_ila_0/inst/net_slot_0_axi_arlock $end
$var reg 3 Y processing_system_wrapper_i/processing_system_i/system_ila_0/inst/net_slot_0_axi_arprot [2:0] $end
$var reg 4 \ processing_system_wrapper_i/processing_system_i/system_ila_0/inst/net_slot_0_axi_arqos [3:0] $end
$var reg 4 ` processing_system_wrapper_i/processing_system_i/system_ila_0/inst/net_slot_0_axi_arregion [3:0] $end
$var reg 3 d processing_system_wrapper_i/processing_system_i/system_ila_0/inst/net_slot_0_axi_arsize [2:0] $end
$var reg 2 g processing_system_wrapper_i/processing_system_i/system_ila_0/inst/net_slot_0_axi_aw_cnt [1:0] $end
$var reg 32 i processing_system_wrapper_i/processing_system_i/system_ila_0/inst/net_slot_0_axi_awaddr [31:0] $end
$var reg 2 +" processing_system_wrapper_i/processing_system_i/system_ila_0/inst/net_slot_0_axi_awburst [1:0] $end
$var reg 4 -" processing_system_wrapper_i/processing_system_i/system_ila_0/inst/net_slot_0_axi_awcache [3:0] $end
$var reg 8 1" processing_system_wrapper_i/processing_system_i/system_ila_0/inst/net_slot_0_axi_awlen [7:0] $end
$var reg 1 9" processing_system_wrapper_i/processing_system_i/system_ila_0/inst/net_slot_0_axi_awlock $end
$var reg 3 :" processing_system_wrapper_i/processing_system_i/system_ila_0/inst/net_slot_0_axi_awprot [2:0] $end
$var reg 4 =" processing_system_wrapper_i/processing_system_i/system_ila_0/inst/net_slot_0_axi_awqos [3:0] $end
$var reg 4 A" processing_system_wrapper_i/processing_system_i/system_ila_0/inst/net_slot_0_axi_awregion [3:0] $end
$var reg 3 E" processing_system_wrapper_i/processing_system_i/system_ila_0/inst/net_slot_0_axi_awsize [2:0] $end
$var reg 2 H" processing_system_wrapper_i/processing_system_i/system_ila_0/inst/net_slot_0_axi_b_cnt [1:0] $end
$var reg 2 J" processing_system_wrapper_i/processing_system_i/system_ila_0/inst/net_slot_0_axi_bresp [1:0] $end
$var reg 2 L" processing_system_wrapper_i/processing_system_i/system_ila_0/inst/net_slot_0_axi_r_cnt [1:0] $end
$var reg 32 N" processing_system_wrapper_i/processing_system_i/system_ila_0/inst/net_slot_0_axi_rdata [31:0] $end
$var reg 2 n" processing_system_wrapper_i/processing_system_i/system_ila_0/inst/net_slot_0_axi_rresp [1:0] $end
$var reg 32 p" processing_system_wrapper_i/processing_system_i/system_ila_0/inst/net_slot_0_axi_wdata [31:0] $end
$var reg 4 2# processing_system_wrapper_i/processing_system_i/system_ila_0/inst/net_slot_0_axi_wstrb [3:0] $end
$var reg 1 6# processing_system_wrapper_i/processing_system_i/system_ila_0/inst/net_slot_0_axi_awvalid $end
$var reg 2 7# processing_system_wrapper_i/processing_system_i/system_ila_0/inst/net_slot_0_axi_aw_ctrl [1:0] $end
$var reg 1 9# processing_system_wrapper_i/processing_system_i/system_ila_0/inst/net_slot_0_axi_awready $end
$var reg 3 :# processing_system_wrapper_i/processing_system_i/system_ila_0/inst/net_slot_0_axi_w_ctrl [2:0] $end
$var reg 1 =# processing_system_wrapper_i/processing_system_i/system_ila_0/inst/net_slot_0_axi_wvalid $end
$var reg 1 ># processing_system_wrapper_i/processing_system_i/system_ila_0/inst/net_slot_0_axi_wready $end
$var reg 1 ?# processing_system_wrapper_i/processing_system_i/system_ila_0/inst/net_slot_0_axi_wlast $end
$var reg 1 @# processing_system_wrapper_i/processing_system_i/system_ila_0/inst/net_slot_0_axi_bvalid $end
$var reg 2 A# processing_system_wrapper_i/processing_system_i/system_ila_0/inst/net_slot_0_axi_b_ctrl [1:0] $end
$var reg 1 C# processing_system_wrapper_i/processing_system_i/system_ila_0/inst/net_slot_0_axi_bready $end
$var reg 1 D# processing_system_wrapper_i/processing_system_i/system_ila_0/inst/net_slot_0_axi_arvalid $end
$var reg 2 E# processing_system_wrapper_i/processing_system_i/system_ila_0/inst/net_slot_0_axi_ar_ctrl [1:0] $end
$var reg 1 G# processing_system_wrapper_i/processing_system_i/system_ila_0/inst/net_slot_0_axi_arready $end
$var reg 3 H# processing_system_wrapper_i/processing_system_i/system_ila_0/inst/net_slot_0_axi_r_ctrl [2:0] $end
$var reg 1 K# processing_system_wrapper_i/processing_system_i/system_ila_0/inst/net_slot_0_axi_rvalid $end
$var reg 1 L# processing_system_wrapper_i/processing_system_i/system_ila_0/inst/net_slot_0_axi_rready $end
$var reg 1 M# processing_system_wrapper_i/processing_system_i/system_ila_0/inst/net_slot_0_axi_rlast $end
$var reg 2 N# processing_system_wrapper_i/processing_system_i/system_ila_0/inst/net_slot_1_axi_ar_cnt [1:0] $end
$var reg 32 P# processing_system_wrapper_i/processing_system_i/system_ila_0/inst/net_slot_1_axi_araddr [31:0] $end
$var reg 2 p# processing_system_wrapper_i/processing_system_i/system_ila_0/inst/net_slot_1_axi_arburst [1:0] $end
$var reg 4 r# processing_system_wrapper_i/processing_system_i/system_ila_0/inst/net_slot_1_axi_arcache [3:0] $end
$var reg 8 v# processing_system_wrapper_i/processing_system_i/system_ila_0/inst/net_slot_1_axi_arlen [7:0] $end
$var reg 1 ~# processing_system_wrapper_i/processing_system_i/system_ila_0/inst/net_slot_1_axi_arlock $end
$var reg 3 !$ processing_system_wrapper_i/processing_system_i/system_ila_0/inst/net_slot_1_axi_arprot [2:0] $end
$var reg 4 $$ processing_system_wrapper_i/processing_system_i/system_ila_0/inst/net_slot_1_axi_arqos [3:0] $end
$var reg 3 ($ processing_system_wrapper_i/processing_system_i/system_ila_0/inst/net_slot_1_axi_arsize [2:0] $end
$var reg 2 +$ processing_system_wrapper_i/processing_system_i/system_ila_0/inst/net_slot_1_axi_aw_cnt [1:0] $end
$var reg 32 -$ processing_system_wrapper_i/processing_system_i/system_ila_0/inst/net_slot_1_axi_awaddr [31:0] $end
$var reg 2 M$ processing_system_wrapper_i/processing_system_i/system_ila_0/inst/net_slot_1_axi_awburst [1:0] $end
$var reg 4 O$ processing_system_wrapper_i/processing_system_i/system_ila_0/inst/net_slot_1_axi_awcache [3:0] $end
$var reg 8 S$ processing_system_wrapper_i/processing_system_i/system_ila_0/inst/net_slot_1_axi_awlen [7:0] $end
$var reg 1 [$ processing_system_wrapper_i/processing_system_i/system_ila_0/inst/net_slot_1_axi_awlock $end
$var reg 3 \$ processing_system_wrapper_i/processing_system_i/system_ila_0/inst/net_slot_1_axi_awprot [2:0] $end
$var reg 4 _$ processing_system_wrapper_i/processing_system_i/system_ila_0/inst/net_slot_1_axi_awqos [3:0] $end
$var reg 3 c$ processing_system_wrapper_i/processing_system_i/system_ila_0/inst/net_slot_1_axi_awsize [2:0] $end
$var reg 2 f$ processing_system_wrapper_i/processing_system_i/system_ila_0/inst/net_slot_1_axi_b_cnt [1:0] $end
$var reg 2 h$ processing_system_wrapper_i/processing_system_i/system_ila_0/inst/net_slot_1_axi_bresp [1:0] $end
$var reg 2 j$ processing_system_wrapper_i/processing_system_i/system_ila_0/inst/net_slot_1_axi_r_cnt [1:0] $end
$var reg 32 l$ processing_system_wrapper_i/processing_system_i/system_ila_0/inst/net_slot_1_axi_rdata [31:0] $end
$var reg 2 .% processing_system_wrapper_i/processing_system_i/system_ila_0/inst/net_slot_1_axi_rresp [1:0] $end
$var reg 32 0% processing_system_wrapper_i/processing_system_i/system_ila_0/inst/net_slot_1_axi_wdata [31:0] $end
$var reg 4 P% processing_system_wrapper_i/processing_system_i/system_ila_0/inst/net_slot_1_axi_wstrb [3:0] $end
$var reg 1 T% processing_system_wrapper_i/processing_system_i/system_ila_0/inst/net_slot_1_axi_awvalid $end
$var reg 2 U% processing_system_wrapper_i/processing_system_i/system_ila_0/inst/net_slot_1_axi_aw_ctrl [1:0] $end
$var reg 1 W% processing_system_wrapper_i/processing_system_i/system_ila_0/inst/net_slot_1_axi_awready $end
$var reg 3 X% processing_system_wrapper_i/processing_system_i/system_ila_0/inst/net_slot_1_axi_w_ctrl [2:0] $end
$var reg 1 [% processing_system_wrapper_i/processing_system_i/system_ila_0/inst/net_slot_1_axi_wvalid $end
$var reg 1 \% processing_system_wrapper_i/processing_system_i/system_ila_0/inst/net_slot_1_axi_wready $end
$var reg 1 ]% processing_system_wrapper_i/processing_system_i/system_ila_0/inst/net_slot_1_axi_wlast $end
$var reg 1 ^% processing_system_wrapper_i/processing_system_i/system_ila_0/inst/net_slot_1_axi_bvalid $end
$var reg 2 _% processing_system_wrapper_i/processing_system_i/system_ila_0/inst/net_slot_1_axi_b_ctrl [1:0] $end
$var reg 1 a% processing_system_wrapper_i/processing_system_i/system_ila_0/inst/net_slot_1_axi_bready $end
$var reg 1 b% processing_system_wrapper_i/processing_system_i/system_ila_0/inst/net_slot_1_axi_arvalid $end
$var reg 2 c% processing_system_wrapper_i/processing_system_i/system_ila_0/inst/net_slot_1_axi_ar_ctrl [1:0] $end
$var reg 1 e% processing_system_wrapper_i/processing_system_i/system_ila_0/inst/net_slot_1_axi_arready $end
$var reg 3 f% processing_system_wrapper_i/processing_system_i/system_ila_0/inst/net_slot_1_axi_r_ctrl [2:0] $end
$var reg 1 i% processing_system_wrapper_i/processing_system_i/system_ila_0/inst/net_slot_1_axi_rvalid $end
$var reg 1 j% processing_system_wrapper_i/processing_system_i/system_ila_0/inst/net_slot_1_axi_rready $end
$var reg 1 k% processing_system_wrapper_i/processing_system_i/system_ila_0/inst/net_slot_1_axi_rlast $end
$var reg 3 l% AR_Channel__i1_s0___S00_AXI_0_1_ [2:0] $end
$var reg 3 o% AR_Channel__i1_s1___axi_interconnect_0_M01_AXI_ [2:0] $end
$var reg 3 r% AW_Channel__i1_s0___S00_AXI_0_1_ [2:0] $end
$var reg 3 u% AW_Channel__i1_s1___axi_interconnect_0_M01_AXI_ [2:0] $end
$var reg 3 x% B_Channel__i1_s0___S00_AXI_0_1_ [2:0] $end
$var reg 3 {% B_Channel__i1_s1___axi_interconnect_0_M01_AXI_ [2:0] $end
$var reg 3 ~% Interface__i1_s0___S00_AXI_0_1_ [2:0] $end
$var reg 3 #& Interface__i1_s1___axi_interconnect_0_M01_AXI_ [2:0] $end
$var reg 3 && R_Channel__i1_s0___S00_AXI_0_1_ [2:0] $end
$var reg 3 )& R_Channel__i1_s1___axi_interconnect_0_M01_AXI_ [2:0] $end
$var reg 3 ,& W_Channel__i1_s0___S00_AXI_0_1_ [2:0] $end
$var reg 3 /& W_Channel__i1_s1___axi_interconnect_0_M01_AXI_ [2:0] $end
$var reg 16 2& ila_1___slot_0___S00_AXI_0_1___Write_Transactions_0 [15:0] $end
$var reg 1 B& _TRIGGER $end
$var reg 1 C& _WINDOW $end
$var reg 1 D& _GAP $end
$upscope $end
$enddefinitions $end
#0
$dumpvars
b1 "
b0 (
b10110100001001010000100000000 *
b0 J
b0 L
b0 P
0X
b0 Y
b0 \
b0 `
b10 d
b0 g
b10110100001001010000100000000 i
b0 +"
b0 -"
b0 1"
09"
b0 :"
b0 ="
b0 A"
b10 E"
b0 H"
b0 J"
b0 L"
b101001 N"
b0 n"
b0 p"
b1111 2#
06#
b10 7#
19#
b100 :#
0=#
0>#
1?#
0@#
b0 A#
0C#
0D#
b10 E#
1G#
b100 H#
0K#
0L#
1M#
b0 N#
b10110100001001010000100000000 P#
b0 p#
b0 r#
b0 v#
0~#
b0 !$
b0 $$
b10 ($
b0 +$
b10110100001001010000100000000 -$
b0 M$
b0 O$
b0 S$
0[$
b0 \$
b0 _$
b10 c$
b0 f$
b0 h$
b0 j$
b0 l$
b0 .%
b0 0%
b0 P%
0T%
b0 U%
0W%
b100 X%
0[%
0\%
1]%
0^%
b10 _%
1a%
0b%
b0 c%
0e%
b0 f%
0i%
0j%
0k%
b11 l%
b11 o%
b0 r%
b11 u%
b0 x%
b11 {%
b0 ~%
b11 #&
b100 &&
b100 )&
b0 ,&
b100 /&
b0 2&
0B&
1C&
0D&
$end
#1
b0 "
1B&
#80
b10 "
#85
b0 "
#90
b10 "
#95
b0 "
#100
b10 "
#105
b100000 "
#110
b100010 "
#115
b0 "
#120
b10 "
#125
b0 "
#130
b10 "
#135
b0 "
#140
b10 "
#145
b100000 "
#150
b100010 "
#155
b0 "
#160
b10 "
#165
b0 "
#170
b10 "
#175
b0 "
#180
b10 "
#185
b0 "
#190
b10 "
#195
b0 "
#200
b10 "
#205
b100000 "
#210
b100010 "
#215
b100000 "
#220
b100010 "
#225
b100000 "
#230
b100010 "
#235
b100000 "
#316
b100001 "
#395
b1 "
#396
b0 "
#475
b10 "
#480
b0 "
#485
b10 "
#490
b0 "
#495
b10 "
#500
b0 "
#505
b10 "
#510
b0 "
#515
b10 "
#520
b0 "
#525
b10 "
#530
b100000 "
#535
b100010 "
#540
b0 "
#545
b10 "
#550
b0 "
#555
b10 "
#560
b0 "
#565
b10 "
#570
b0 "
#575
b10 "
#580
b0 "
#585
b10 "
#590
b0 "
#595
b10 "
#600
b0 "
#605
b10 "
#610
b0 "
#615
b10 "
#620
b0 "
#625
b10 "
#630
b0 "
#635
b10 "
#640
b0 "
#645
b10 "
#650
b0 "
#655
b10 "
#660
b0 "
#665
b10 "
#670
b0 "
#675
b10 "
#680
b0 "
#685
b10 "
#690
b0 "
#695
b10 "
#700
b0 "
#705
b10 "
#710
b0 "
#715
b10 "
#720
b0 "
#725
b10 "
#730
b0 "
#735
b10 "
#740
b0 "
#745
b10 "
#750
b0 "
#755
b10 "
#760
b0 "
#765
b10 "
#770
b0 "
#775
b10 "
#780
b0 "
#785
b10 "
#790
b0 "
#795
b10 "
#800
b0 "
#805
b10 "
#810
b0 "
#815
b10 "
#820
b0 "
#825
b10 "
#830
b0 "
#835
b10 "
#840
b0 "
#845
b10 "
#850
b0 "
#855
b10 "
#860
b0 "
#865
b10 "
#868
b10110100001001010000000000000 *
b10110100001001010000000000000 i
#870
b0 "
#872
b10110100001001010000000000000 P#
b10110100001001010000000000000 -$
#875
b10 "
#880
b0 "
#885
b10 "
#890
b0 "
#895
b10 "
#900
b100000 "
#905
b100010 "
#910
b0 "
#915
b10 "
#920
b0 "
#925
b10 "
#930
b0 "
#935
b10 "
#940
b0 "
#945
b10 "
#950
b0 "
#955
b10 "
#960
b0 "
#965
b10 "
#970
b100000 "
#975
b100010 "
#980
b100000 "
#985
b100010 "
#990
b0 "
#995
b10 "
#1000
b0 "
#1005
b10 "
#1010
b100000 "
#1015
b100010 "
#1020
b0 "
#1025
b10 "
#1030
b0 "
#1035
b10 "
#1040
b100000 "
#1045
b100010 "
#1050
b0 "
#1055
b10 "
#1060
b100000 "
#1065
b100010 "
#1070
b0 "
#1075
b10 "
#1080
b100000 "
#1085
b100010 "
#1090
b0 "
#1095
b10 "
#1100
b0 "
#1105
b10 "
#1110
b0 "
#1115
b10 "
#1120
b100000 "
#1125
b100010 "
#1130
b100000 "
#1135
b100010 "
#1140
b100000 "
#1145
b100010 "
#1150
b0 "
#1155
b10 "
#1160
b100000 "
#1165
b100010 "
#1170
b100000 "
#1175
b100010 "
#1180
b0 "
#1185
b10 "
#1189
b10000001100100101010001110110 p"
16#
b11 7#
b101 :#
1=#
b10 r%
b1 ~%
b1 2&
#1190
b100000 "
b1 g
b1 H"
06#
b0 7#
09#
b0 r%
b0 ~%
#1191
b10 7#
19#
#1193
b111 :#
1>#
b1 ~%
b111 ,&
#1194
b10110100001001010000000000100 *
b10110100001001010000000000100 i
b100 :#
0=#
0>#
b10 A#
1C#
b0 ~%
b0 ,&
#1195
b100010 "
#1198
b10110100001001010000000000100 P#
b10110100001001010000000000100 -$
#1200
b0 "
#1205
b10 "
#1210
b0 "
1@#
b11 A#
b10 x%
b1 ~%
#1211
b0 g
b0 H"
0@#
b0 A#
0C#
b0 x%
b0 ~%
b0 2&
#1215
b10 "
#1220
b100000 "
#1225
b100010 "
#1230
b100000 "
#1235
b100010 "
#1240
b0 "
#1245
b10 "
#1250
b0 "
#1255
b10 "
#1260
b0 "
#1265
b10 "
#1270
b100000 "
#1275
b100010 "
#1280
b0 "
#1285
b10 "
#1290
b100000 "
#1295
b100010 "
#1300
b100000 "
#1305
b100010 "
#1310
b100000 "
#1315
b100010 "
#1320
b0 "
#1325
b10 "
#1330
b100000 "
#1335
b100010 "
#1340
b0 "
#1345
b10 "
#1350
b100000 "
#1355
b100010 "
#1360
b100000 "
#1365
b100010 "
#1370
b0 "
#1375
b10 "
#1380
b100000 "
#1385
b100010 "
#1390
b100000 "
#1395
b100010 "
#1400
b100000 "
#1405
b100010 "
#1410
b0 "
#1415
b10 "
#1420
b0 "
#1425
b10 "
#1430
b100000 "
#1435
b100010 "
#1440
b100000 "
#1445
b100010 "
#1450
b100000 "
#1455
b100010 "
#1460
b100000 "
#1465
b100010 "
#1470
b100000 "
#1475
b100010 "
#1480
b100000 "
#1485
b100010 "
#1490
b100000 "
#1495
b100010 "
#1500
b0 "
#1505
b10 "
#1509
b10011000101110101101110011111110 p"
16#
b11 7#
b101 :#
1=#
b10 r%
b1 ~%
b10 2&
#1510
b100000 "
b1 g
b1 H"
06#
b0 7#
09#
b0 r%
b0 ~%
#1511
b10 7#
19#
#1513
b111 :#
1>#
b1 ~%
b111 ,&
#1514
b10110100001001010000000001000 *
b10110100001001010000000001000 i
b100 :#
0=#
0>#
b10 A#
1C#
b0 ~%
b0 ,&
#1515
b100010 "
#1518
b10110100001001010000000001000 P#
b10110100001001010000000001000 -$
#1520
b0 "
#1525
b10 "
#1530
b0 "
1@#
b11 A#
b10 x%
b1 ~%
#1531
b0 g
b0 H"
0@#
b0 A#
0C#
b0 x%
b0 ~%
b0 2&
#1535
b10 "
#1540
b100000 "
#1545
b100010 "
#1550
b0 "
#1555
b10 "
#1560
b0 "
#1565
b10 "
#1570
b0 "
#1575
b10 "
#1580
b0 "
#1585
b10 "
#1590
b0 "
#1595
b10 "
#1600
b100000 "
#1605
b100010 "
#1610
b100000 "
#1615
b100010 "
#1620
b0 "
#1625
b10 "
#1630
b100000 "
#1635
b100010 "
#1640
b100000 "
#1645
b100010 "
#1650
b100000 "
#1655
b100010 "
#1660
b100000 "
#1665
b100010 "
#1670
b100000 "
#1675
b100010 "
#1680
b0 "
#1685
b10 "
#1690
b0 "
#1695
b10 "
#1700
b100000 "
#1705
b100010 "
#1710
b100000 "
#1715
b100010 "
#1720
b0 "
#1725
b10 "
#1730
b100000 "
#1735
b100010 "
#1740
b0 "
#1745
b10 "
#1750
b0 "
#1755
b10 "
#1760
b100000 "
#1765
b100010 "
#1770
b0 "
#1775
b10 "
#1780
b100000 "
#1785
b100010 "
#1790
b0 "
#1795
b10 "
#1800
b100000 "
#1805
b100010 "
#1810
b100000 "
#1815
b100010 "
#1820
b100000 "
#1825
b100010 "
#1829
b10010000011011111001101001010111 p"
16#
b11 7#
b101 :#
1=#
b10 r%
b1 ~%
b11 2&
#1830
b100000 "
b1 g
b1 H"
06#
b0 7#
09#
b0 r%
b0 ~%
#1831
b10 7#
19#
#1833
b111 :#
1>#
b1 ~%
b111 ,&
#1834
b10110100001001010000000001100 *
b10110100001001010000000001100 i
b100 :#
0=#
0>#
b10 A#
1C#
b0 ~%
b0 ,&
#1835
b100010 "
#1838
b10110100001001010000000001100 P#
b10110100001001010000000001100 -$
#1840
b100000 "
#1845
b100010 "
#1850
b100000 "
1@#
b11 A#
b10 x%
b1 ~%
#1851
b0 g
b0 H"
0@#
b0 A#
0C#
b0 x%
b0 ~%
b0 2&
#1855
b100010 "
#1860
b0 "
#1865
b10 "
#1870
b100000 "
#1875
b100010 "
#1880
b100000 "
#1885
b100010 "
#1890
b100000 "
#1895
b100010 "
#1900
b0 "
#1905
b10 "
#1910
b0 "
#1915
b10 "
#1920
b100000 "
#1925
b100010 "
#1930
b0 "
#1935
b10 "
#1940
b100000 "
#1945
b100010 "
#1950
b100000 "
#1955
b100010 "
#1960
b0 "
#1965
b10 "
#1970
b100000 "
#1975
b100010 "
#1980
b100000 "
#1985
b100010 "
#1990
b0 "
#1995
b10 "
#2000
b100000 "
#2005
b100010 "
#2010
b100000 "
#2015
b100010 "
#2020
b100000 "
#2025
b100010 "
#2030
b100000 "
#2035
b100010 "
#2040
b100000 "
#2045
b100010 "
